{
  "version": 3,
  "targets": {
    ".NETPlatform,Version=v5.0": {}
  },
  "libraries": {},
  "projectFileDependencyGroups": {
    "": [],
    ".NETPlatform,Version=v5.0": []
  },
  "packageFolders": {
    "C:\\Users\\z003p02k\\.nuget\\packages\\": {}
  },
  "project": {
    "restore": {
      "projectUniqueName": "C:\\Users\\z003p02k\\Desktop\\Dev\\johnnewcombe-geouk-37092a5f27b0\\GeoUK\\GeoUK.csproj",
      "projectName": "GeoUK",
      "projectPath": "C:\\Users\\z003p02k\\Desktop\\Dev\\johnnewcombe-geouk-37092a5f27b0\\GeoUK\\GeoUK.csproj",
      "projectJsonPath": "C:\\Users\\z003p02k\\Desktop\\Dev\\johnnewcombe-geouk-37092a5f27b0\\GeoUK\\project.json",
      "packagesPath": "C:\\Users\\z003p02k\\.nuget\\packages\\",
      "outputPath": "C:\\Users\\z003p02k\\Desktop\\Dev\\johnnewcombe-geouk-37092a5f27b0\\GeoUK\\obj\\",
      "projectStyle": "ProjectJson",
      "configFilePaths": [
        "C:\\Users\\z003p02k\\AppData\\Roaming\\NuGet\\NuGet.Config",
        "C:\\Program Files (x86)\\NuGet\\Config\\Microsoft.VisualStudio.Offline.config"
      ],
      "sources": {
        "C:\\Program Files (x86)\\Microsoft SDKs\\NuGetPackages\\": {},
        "https://api.nuget.org/v3/index.json": {}
      }
    },
    "frameworks": {
      "dotnet50": {
        "imports": [
          "portable-net452"
        ]
      }
    },
    "supports": {
      "dnxcore50.app": {},
      "net46.app": {}
    }
  },
  "logs": [
    {
      "code": "NU1502",
      "level": "Warning",
      "warningLevel": 1,
      "message": "Unknown Compatibility Profile: net46.app"
    },
    {
      "code": "NU1502",
      "level": "Warning",
      "warningLevel": 1,
      "message": "Unknown Compatibility Profile: dnxcore50.app"
    }
  ]
}